…
The data set contains 100 observations of the radiation strength and
measurement distance.

``` r
# exam data set
df %>% select(-lambda)
```

    # A tibble: 100 × 2
           x     y
       <dbl> <dbl>
     1   0.1 0.747
     2   0.1 0.817
     3   0.1 0.894
     4   0.1 0.755
     5   0.2 0.623
     6   0.2 0.441
     7   0.2 0.659
     8   0.2 0.449
     9   0.3 0.458
    10   0.3 0.468
    # ℹ 90 more rows
…
# grid search
df_pscf <- expand_grid(range_lb.init = seq.int(-20, -5, 1)/10, range.init = seq.int(10, 40, 2)/10) %>% 
  filter(range.init >= 2*abs(range_lb.init)) %>% 
  rowwise() %>% 
  mutate(opt = list(search_optim(pars, range_lb.init, range.init)))

# summary table
p4_summary <- df_pscf %>% 
  hoist(opt, pars = 1, tbl = 2, plot = 3) %>% 
  unnest(pars) 
p4_summary %>% select(1:2, rss:sd)
```

    # A tibble: 136 × 8
       range_lb.init range.init   rss width     h     a  mean    sd
               <dbl>      <dbl> <dbl> <dbl> <dbl> <dbl> <dbl> <dbl>
     1          -2          4   21.5   3.78 15.0  111.   3.35  2.95
     2          -1.9        3.8 13.9   3.60 10.8   69.7  3.32  2.59
     3          -1.9        4   14.2   3.78 14.7  118.   3.37  3.24
     4          -1.8        3.6  7.94  3.41 15.2  122.   3.27  3.22
     5          -1.8        3.8  9.24  3.60 10.7   73.3  3.35  2.79
     6          -1.8        4    9.91  3.78 11.0   81.3  3.42  3.00
     7          -1.7        3.4  5.12  3.22 10.1   67.2  3.25  2.70
     8          -1.7        3.6  5.58  3.41 11.0   81.8  3.33  3.03
     9          -1.7        3.8  6.35  3.60  9.21  63.5  3.39  2.82
    10          -1.7        4    7.05  3.78  7.75  50.6  3.43  2.70
    # ℹ 126 more rows
…
